module spam-masker

go 1.22.2

require (
	github.com/stretchr/testify v1.9.0
	github.com/urfave/cli/v2 v2.27.3
)

require (
	github.com/cpuguy83/go-md2man/v2 v2.0.4 // indirect
	github.com/davecgh/go-spew v1.1.1 // indirect
	github.com/pmezard/go-difflib v1.0.0 // indirect
	github.com/russross/blackfriday/v2 v2.1.0 // indirect
	github.com/stretchr/objx v0.5.2 // indirect
	github.com/xrash/smetrics v0.0.0-20240521201337-686a1a2994c1 // indirect
	gopkg.in/yaml.v3 v3.0.1 // indirect
)
